<?xml version="1.0" encoding="utf-8"?>
<!-- Generator: Adobe Illustrator 16.0.0, SVG Export Plug-In . SVG Version: 6.00 Build 0)  -->
<!DOCTYPE svg PUBLIC "-//W3C//DTD SVG 1.1//EN" "http://www.w3.org/Graphics/SVG/1.1/DTD/svg11.dtd">
<svg version="1.1" id="Capa_1" xmlns="http://www.w3.org/2000/svg" xmlns:xlink="http://www.w3.org/1999/xlink" x="0px" y="0px"
	 width="69.968px" height="73.799px" viewBox="0 0 69.968 73.799" enable-background="new 0 0 69.968 73.799" xml:space="preserve">
<path d="M34.927,0C15.668,0,0,15.668,0,34.917c-0.007,0.806,0.414,1.572,1.101,2.001l3.552,2.2v7.162
	c-2.06,1.38-3.316,3.701-3.322,6.213v12.073c0.003,4.069,3.317,7.418,7.374,7.463l0.258,0.007c0.271,1.004,1.171,1.739,2.261,1.763
	h6.516h0.032c1.282-0.036,2.304-1.104,2.285-2.385V46.051c0.007-0.62-0.243-1.223-0.688-1.656c-0.441-0.429-1.03-0.658-1.646-0.645
	h-6.476c-0.793,0-1.483,0.358-1.911,0.921v-9.744c0-14.102,11.479-25.575,25.59-25.575s25.59,11.473,25.59,25.575v9.744
	c-0.427-0.563-1.118-0.921-1.911-0.921H52.13c-0.617-0.017-1.205,0.215-1.646,0.645c-0.444,0.434-0.695,1.038-0.687,1.643v25.374
	c-0.021,1.282,1.001,2.351,2.283,2.387h6.538h0.011c1.09-0.023,1.99-0.759,2.261-1.763l0.245-0.007
	c4.068-0.045,7.383-3.394,7.388-7.463V52.49c-0.007-2.509-1.264-4.83-3.321-6.209v-7.162l3.553-2.201
	c0.692-0.431,1.106-1.178,1.103-1.99C69.856,15.668,54.186,0,34.927,0z M63.839,52.493v12.069c-0.006,1.521-1.246,2.77-2.765,2.784
	l-0.101,0.002V49.643h0.081C62.562,49.643,63.839,50.947,63.839,52.493z M8.798,49.643H8.88v17.706l-0.102-0.002H8.774
	c-1.52-0.015-2.757-1.262-2.759-2.78V52.493C6.015,50.947,7.289,49.643,8.798,49.643z M13.564,69.116V48.436h1.808v20.681H13.564z
	 M54.48,69.116V48.436h1.808v20.681H54.48z"/>
</svg>
