<?xml version="1.0" encoding="utf-8"?>
<!-- Generator: Adobe Illustrator 16.0.0, SVG Export Plug-In . SVG Version: 6.00 Build 0)  -->
<!DOCTYPE svg PUBLIC "-//W3C//DTD SVG 1.1//EN" "http://www.w3.org/Graphics/SVG/1.1/DTD/svg11.dtd">
<svg version="1.1" id="Capa_1" xmlns="http://www.w3.org/2000/svg" xmlns:xlink="http://www.w3.org/1999/xlink" x="0px" y="0px"
	 width="73.798px" height="73.799px" viewBox="-1.916 0 73.798 73.799" enable-background="new -1.916 0 73.798 73.799"
	 xml:space="preserve">
<rect x="-1.916" y="35.232" width="73.798" height="3.334"/>
</svg>
