<?xml version="1.0" encoding="utf-8"?>
<!-- Generator: Adobe Illustrator 16.0.0, SVG Export Plug-In . SVG Version: 6.00 Build 0)  -->
<!DOCTYPE svg PUBLIC "-//W3C//DTD SVG 1.1//EN" "http://www.w3.org/Graphics/SVG/1.1/DTD/svg11.dtd">
<svg version="1.1" id="Capa_1" x="0px" y="0px"
	 width="69.968px" height="79.251px" viewBox="0 0 69.968 79.251" enable-background="new 0 0 69.968 79.251" xml:space="preserve">
<g>
	<path d="M67.532,31.245h-45.07l43.291-12.54c0.623-0.181,1.141-0.594,1.455-1.164c0.314-0.57,0.388-1.228,0.206-1.853l-2.593-8.95
		C63.673,2.771,59.979,0,55.841,0c-0.872,0-1.742,0.124-2.586,0.368L6.741,13.842c-2.388,0.691-4.367,2.278-5.573,4.468
		c-1.206,2.189-1.489,4.71-0.797,7.098l2.496,8.618v35.888c0,5.148,4.188,9.337,9.337,9.337H30.37c1.343,0,2.436-1.093,2.436-2.436
		s-1.093-2.436-2.436-2.436H12.204c-2.463,0-4.466-2.003-4.466-4.466v-19.65h57.358v19.65c0,2.463-2.004,4.466-4.467,4.466H42.464
		c-1.342,0-2.436,1.093-2.436,2.436s1.094,2.436,2.436,2.436H60.63c5.148,0,9.338-4.188,9.338-9.337V33.68
		C69.968,32.337,68.875,31.245,67.532,31.245z M23.292,25.934l-9.451-9.077l5.977-1.731l9.45,9.077L23.292,25.934z M34.669,22.638
		l-9.45-9.077l5.977-1.731l9.45,9.076L34.669,22.638z M46.048,19.341l-9.451-9.077l5.977-1.731l9.45,9.077L46.048,19.341z
		 M55.841,4.871c1.982,0,3.752,1.325,4.303,3.222l1.914,6.61l-4.632,1.342l-9.45-9.076l6.635-1.922
		C55.012,4.93,55.427,4.871,55.841,4.871z M17.888,27.499L6.964,30.663l-1.914-6.61c-0.33-1.138-0.193-2.343,0.385-3.394
		c0.578-1.049,1.523-1.809,2.662-2.139l0.342-0.099L17.888,27.499z M18.514,36.116l-5.356,9.277h-5.42v-9.277H18.514z M30.36,36.116
		l-5.356,9.277h-6.222l5.356-9.277H30.36z M42.206,36.116l-5.355,9.277h-6.223l5.357-9.277H42.206z M54.052,36.116l-5.356,9.277
		h-6.222l5.356-9.277H54.052z M65.096,36.116v9.277H54.321l5.355-9.277H65.096z"/>
	<path d="M47.795,62.168c0-0.867-0.467-1.676-1.218-2.109l-13.282-7.668c-0.739-0.427-1.696-0.427-2.435,0
		c-0.752,0.434-1.219,1.242-1.219,2.109v15.336c0,0.867,0.467,1.676,1.218,2.108c0.37,0.214,0.791,0.327,1.218,0.327
		s0.848-0.113,1.218-0.326l13.282-7.668C47.328,63.844,47.795,63.035,47.795,62.168z M40.488,62.168l-5.976,3.45v-6.899
		L40.488,62.168z"/>
	<circle cx="36.417" cy="76.815" r="2.436"/>
</g>
</svg>
